ALSPAC_Score_2
…
BED <- ALSPAC_wide |> select(id, starts_with('binge')) 

full_join(dx_data, BED)

Joining with `by = join_by(id)`

Warning in full_join(dx_data, BED): Detected an unexpected many-to-many relationship between `x` and `y`.
ℹ Row 1 of `x` matches multiple rows in `y`.
ℹ Row 1 of `y` matches multiple rows in `x`.
ℹ If a many-to-many relationship is expected, set `relationship =
  "many-to-many"` to silence this warning.

# A tibble: 123,536 × 126
      id bmiz_bestavail.168 fear_wtgain.167 wt_shape_concern.167
   <dbl>              <dbl> <dbl+lbl>       <dbl+lbl>           
 1     2             -0.779  0               0 [absent]         
 2     2             -0.779  0               0 [absent]         
 3     2             -0.779  0               0 [absent]         
 4     2             -0.779  0               0 [absent]         
 5     4             NA     NA              NA                  
 6     4             NA     NA              NA                  
 7     4             NA     NA              NA                  
 8     4             NA     NA              NA                  
 9     5              0.511  0               0 [absent]         
10     5              0.511  0               0 [absent]         
# ℹ 123,526 more rows
# ℹ 122 more variables: body_sat_mean.167 <dbl>, fat_avoidance.167 <dbl+lbl>,
#   fasting_monthly.167 <dbl+lbl>, maladaptive_exercise.167 <dbl+lbl>,
#   bmiz_bestavail.192 <dbl>, diet_length.198 <dbl+lbl>,
#   fat_avoidance.198 <dbl+lbl>, fasting_monthly.198 <dbl+lbl>,
#   maladaptive_exercise.198 <dbl+lbl>, bmiz_bestavail.216 <dbl>,
#   diet_length.222 <dbl+lbl>, wt_valuation.222 <dbl+lbl>, …
